^C:\USERS\FERNANDO\DOCUMENTS\UTA\CSE 4317\DEMO\CMAKELISTS.TXT
C:\USERS\FERNANDO\DOCUMENTS\UTA\CSE 4317\DEMO\CMAKEFILES\CMAKEFILES\3.5.0-RC2\CMAKESYSTEM.CMAKE
C:\PROGRAM FILES (X86)\CMAKE\SHARE\CMAKE-3.5\MODULES\CMAKESYSTEMSPECIFICINITIALIZE.CMAKE
C:\USERS\FERNANDO\DOCUMENTS\UTA\CSE 4317\DEMO\CMAKEFILES\CMAKEFILES\3.5.0-RC2\CMAKECCOMPILER.CMAKE
C:\USERS\FERNANDO\DOCUMENTS\UTA\CSE 4317\DEMO\CMAKEFILES\CMAKEFILES\3.5.0-RC2\CMAKECXXCOMPILER.CMAKE
C:\PROGRAM FILES (X86)\CMAKE\SHARE\CMAKE-3.5\MODULES\CMAKESYSTEMSPECIFICINFORMATION.CMAKE
C:\PROGRAM FILES (X86)\CMAKE\SHARE\CMAKE-3.5\MODULES\CMAKEGENERICSYSTEM.CMAKE
C:\PROGRAM FILES (X86)\CMAKE\SHARE\CMAKE-3.5\MODULES\PLATFORM\WINDOWS.CMAKE
C:\PROGRAM FILES (X86)\CMAKE\SHARE\CMAKE-3.5\MODULES\PLATFORM\WINDOWSPATHS.CMAKE
C:\PROGRAM FILES (X86)\CMAKE\SHARE\CMAKE-3.5\MODULES\CMAKECINFORMATION.CMAKE
C:\PROGRAM FILES (X86)\CMAKE\SHARE\CMAKE-3.5\MODULES\CMAKELANGUAGEINFORMATION.CMAKE
C:\PROGRAM FILES (X86)\CMAKE\SHARE\CMAKE-3.5\MODULES\PLATFORM\WINDOWS-MSVC-C.CMAKE
C:\PROGRAM FILES (X86)\CMAKE\SHARE\CMAKE-3.5\MODULES\PLATFORM\WINDOWS-MSVC.CMAKE
C:\USERS\FERNANDO\DOCUMENTS\UTA\CSE 4317\DEMO\CMAKEFILES\CMAKEFILES\3.5.0-RC2\CMAKERCCOMPILER.CMAKE
C:\PROGRAM FILES (X86)\CMAKE\SHARE\CMAKE-3.5\MODULES\CMAKERCINFORMATION.CMAKE
C:\PROGRAM FILES (X86)\CMAKE\SHARE\CMAKE-3.5\MODULES\CMAKECOMMONLANGUAGEINCLUDE.CMAKE
C:\PROGRAM FILES (X86)\CMAKE\SHARE\CMAKE-3.5\MODULES\CMAKECXXINFORMATION.CMAKE
C:\PROGRAM FILES (X86)\CMAKE\SHARE\CMAKE-3.5\MODULES\COMPILER\MSVC-CXX.CMAKE
C:\PROGRAM FILES (X86)\CMAKE\SHARE\CMAKE-3.5\MODULES\PLATFORM\WINDOWS-MSVC-CXX.CMAKE
