#Command:  
^C:\USERS\FERNANDO\DOCUMENTS\UTA\CSE 4317\DEMO\CMAKEFILES\CMAKEFILES\3.5.0-RC2\COMPILERIDC\DEBUG\CMAKECCOMPILERID.OBJ
C:\WINDOWS\ASSEMBLY\NATIVEIMAGES_V4.0.30319_32\SYSTEM.CONFIGURATION\206E48E6105B08574BB8E821EF9A6B4A\SYSTEM.CONFIGURATION.NI.DLL
C:\WINDOWS\ASSEMBLY\NATIVEIMAGES_V4.0.30319_32\SYSTEM.CONFIGURATION\206E48E6105B08574BB8E821EF9A6B4A\SYSTEM.CONFIGURATION.NI.DLL.AUX
C:\WINDOWS\ASSEMBLY\NATIVEIMAGES_V4.0.30319_32\SYSTEM.XML\21709E6E2D2B139A920A46D9CAA86473\SYSTEM.XML.NI.DLL
C:\WINDOWS\ASSEMBLY\NATIVEIMAGES_V4.0.30319_32\SYSTEM.XML\21709E6E2D2B139A920A46D9CAA86473\SYSTEM.XML.NI.DLL.AUX
C:\WINDOWS\MICROSOFT.NET\ASSEMBLY\GAC_MSIL\SYSTEM.DATA.SQLXML\V4.0_4.0.0.0__B77A5C561934E089\SYSTEM.DATA.SQLXML.DLL
C:\WINDOWS\MICROSOFT.NET\FRAMEWORK\V4.0.30319\CONFIG\MACHINE.CONFIG
C:\WINDOWS\MICROSOFT.NET\ASSEMBLY\GAC_MSIL\SYSTEM.XML.LINQ\V4.0_4.0.0.0__B77A5C561934E089\SYSTEM.XML.LINQ.DLL
C:\WINDOWS\ASSEMBLY\NATIVEIMAGES_V4.0.30319_32\SYSTEM.XML.LINQ\C00EB17FBFCF6F27038AA9FCE18FAF0F\SYSTEM.XML.LINQ.NI.DLL
C:\WINDOWS\ASSEMBLY\NATIVEIMAGES_V4.0.30319_32\SYSTEM.XML.LINQ\C00EB17FBFCF6F27038AA9FCE18FAF0F\SYSTEM.XML.LINQ.NI.DLL.AUX
C:\WINDOWS\MICROSOFT.NET\ASSEMBLY\GAC_MSIL\SYSTEM.XML.LINQ\V4.0_4.0.0.0__B77A5C561934E089\SYSTEM.XML.LINQ.DLL
C:\WINDOWS\MICROSOFT.NET\ASSEMBLY\GAC_MSIL\SYSTEM.RUNTIME.SERIALIZATION\V4.0_4.0.0.0__B77A5C561934E089\SYSTEM.RUNTIME.SERIALIZATION.DLL
